{
	"id": "3c1b030d-7b74-4b34-b8bb-c9dc2a6cfee2",
	"name": "ampere",
	"values": [
		{
			"key": "auth-uri",
			"value": "https://www.ampere.local/auth/realms/ampere/protocol/openid-connect/token",
			"enabled": true
		},
		{
			"key": "client-id",
			"value": "ampere_service",
			"enabled": true
		},
		{
			"key": "client-secret",
			"value": "",
			"enabled": true
		},
		{
			"key": "auth-token",
			"value": "",
			"enabled": true
		},
		{
			"key": "auth-token-expiry",
			"value": "",
			"enabled": true
		}
	],
	"_postman_variable_scope": "environment",
	"_postman_exported_at": "2020-09-22T10:02:43.404Z",
	"_postman_exported_using": "Postman/7.32.0"
}